Oficina de análise de dados NIR em ambiente R
…
## Selecionando colunas com `select()`

**Podemos selecionar quantas colunas desejarmos.**  

--

### Uma coluna

```r
select(dados, especimenid)
```

```
## # A tibble: 48 × 1
##    especimenid
##          <int>
##  1       10194
##  2       10194
##  3       10194
##  4       10194
##  5       10194
##  6       10194
##  7       10194
##  8       10194
##  9       10196
## 10       10196
## # … with 38 more rows
```
…
Para selecionar uma coluna, usamos a função select().
O primeiro argumento é o nome do data.frame, `dados`; a partir do segundo argumento, colocamos os nomes das colunas sem aspas.

---

## Selecionando colunas com `select()`

### *Duas* colunas

```r
select(dados, especimenid, SP1)
```

```
## # A tibble: 48 × 2
##    especimenid SP1           
##          <int> <chr>         
##  1       10194 P. aracouchini
##  2       10194 P. aracouchini
##  3       10194 P. aracouchini
##  4       10194 P. aracouchini
##  5       10194 P. aracouchini
##  6       10194 P. aracouchini
##  7       10194 P. aracouchini
##  8       10194 P. aracouchini
##  9       10196 P. aracouchini
## 10       10196 P. aracouchini
## # … with 38 more rows
```

---

## Selecionando colunas com `select()`

### *Múltiplas* colunas

```r
select(dados, especimenid, SP1, coletor, number)
```

```
## # A tibble: 48 × 4
##    especimenid SP1            coletor      number
##          <int> <chr>          <chr>         <int>
##  1       10194 P. aracouchini Perdiz, R.O.   2856
##  2       10194 P. aracouchini Perdiz, R.O.   2856
##  3       10194 P. aracouchini Perdiz, R.O.   2856
##  4       10194 P. aracouchini Perdiz, R.O.   2856
##  5       10194 P. aracouchini Perdiz, R.O.   2856
##  6       10194 P. aracouchini Perdiz, R.O.   2856
##  7       10194 P. aracouchini Perdiz, R.O.   2856
##  8       10194 P. aracouchini Perdiz, R.O.   2856
##  9       10196 P. aracouchini Perdiz, R.O.   2858
## 10       10196 P. aracouchini Perdiz, R.O.   2858
## # … with 38 more rows
```
…
---

## Reordenar colunas

```r
select(dados, SP1, number, coletor)
```

```
## # A tibble: 48 × 3
##    SP1            number coletor     
##    <chr>           <int> <chr>       
##  1 P. aracouchini   2856 Perdiz, R.O.
##  2 P. aracouchini   2856 Perdiz, R.O.
##  3 P. aracouchini   2856 Perdiz, R.O.
##  4 P. aracouchini   2856 Perdiz, R.O.
##  5 P. aracouchini   2856 Perdiz, R.O.
##  6 P. aracouchini   2856 Perdiz, R.O.
##  7 P. aracouchini   2856 Perdiz, R.O.
##  8 P. aracouchini   2856 Perdiz, R.O.
##  9 P. aracouchini   2858 Perdiz, R.O.
## 10 P. aracouchini   2858 Perdiz, R.O.
## # … with 38 more rows
```

---

## Reordenar colunas com `everything()`

```r
select(dados, coletor, number, everything())
```

```
## # A tibble: 48 × 1,562
##    coletor  number especimenid SP1     face  X10001.03
##    <chr>     <int>       <int> <chr>   <chr>     <dbl>
##  1 Perdiz,…   2856       10194 P. ara… abax…     0.278
##  2 Perdiz,…   2856       10194 P. ara… adax…     0.254
##  3 Perdiz,…   2856       10194 P. ara… abax…     0.273
##  4 Perdiz,…   2856       10194 P. ara… adax…     0.258
##  5 Perdiz,…   2856       10194 P. ara… abax…     0.278
##  6 Perdiz,…   2856       10194 P. ara… adax…     0.254
##  7 Perdiz,…   2856       10194 P. ara… abax…     0.273
##  8 Perdiz,…   2856       10194 P. ara… adax…     0.258
##  9 Perdiz,…   2858       10196 P. ara… abax…     0.274
## 10 Perdiz,…   2858       10196 P. ara… adax…     0.278
## # … with 38 more rows, and 1,556 more variables:
## #   X3999.64 <dbl>, X4003.497 <dbl>, X4007.354 <dbl>,
## #   X4011.211 <dbl>, X4015.068 <dbl>,
## #   X4018.925 <dbl>, X4022.781 <dbl>,
## #   X4026.638 <dbl>, X4030.495 <dbl>,
## #   X4034.352 <dbl>, X4038.209 <dbl>,
## #   X4042.066 <dbl>, X4045.923 <dbl>, …
```
…
---

## `starts_with()`

```r
select(dados, starts_with("col"))
```

```
## # A tibble: 48 × 1
##    coletor     
##    <chr>       
##  1 Perdiz, R.O.
##  2 Perdiz, R.O.
##  3 Perdiz, R.O.
##  4 Perdiz, R.O.
##  5 Perdiz, R.O.
##  6 Perdiz, R.O.
##  7 Perdiz, R.O.
##  8 Perdiz, R.O.
##  9 Perdiz, R.O.
## 10 Perdiz, R.O.
## # … with 38 more rows
```

---

## `ends_with()`

```r
select(dados, ends_with("r"))
```

```
## # A tibble: 48 × 2
##    coletor      number
##    <chr>         <int>
##  1 Perdiz, R.O.   2856
##  2 Perdiz, R.O.   2856
##  3 Perdiz, R.O.   2856
##  4 Perdiz, R.O.   2856
##  5 Perdiz, R.O.   2856
##  6 Perdiz, R.O.   2856
##  7 Perdiz, R.O.   2856
##  8 Perdiz, R.O.   2856
##  9 Perdiz, R.O.   2858
## 10 Perdiz, R.O.   2858
## # … with 38 more rows
```

---

## `contains()`

```r
select(dados, contains("ol"))
```

```
## # A tibble: 48 × 1
##    coletor     
##    <chr>       
##  1 Perdiz, R.O.
##  2 Perdiz, R.O.
##  3 Perdiz, R.O.
##  4 Perdiz, R.O.
##  5 Perdiz, R.O.
##  6 Perdiz, R.O.
##  7 Perdiz, R.O.
##  8 Perdiz, R.O.
##  9 Perdiz, R.O.
## 10 Perdiz, R.O.
## # … with 38 more rows
```

---

## `matches()`

```r
select(dados, matches("^X[0-9]+\\.97$"))
```

```
## # A tibble: 48 × 1
##    X8438.97
##       <dbl>
##  1    0.294
##  2    0.271
##  3    0.290
##  4    0.275
##  5    0.294
##  6    0.271
##  7    0.290
##  8    0.275
##  9    0.285
## 10    0.290
## # … with 38 more rows
```

---

## `num_range()`

```r
select(dados, num_range("X", seq(from = 3999.64, to = 4007.354, by = 3.857)))
```

```
## # A tibble: 48 × 3
##    X3999.64 X4003.497 X4007.354
##       <dbl>     <dbl>     <dbl>
##  1    0.596     0.596     0.596
##  2    0.567     0.567     0.567
##  3    0.581     0.582     0.582
##  4    0.576     0.577     0.577
##  5    0.596     0.596     0.596
##  6    0.567     0.567     0.567
##  7    0.581     0.582     0.582
##  8    0.576     0.577     0.577
##  9    0.681     0.681     0.681
## 10    0.673     0.672     0.672
## # … with 38 more rows
```
…
---

## Ordenar linhas - `arrange()`

```r
arrange(dados, number)
```

```
## # A tibble: 48 × 1,562
##    especimenid SP1     face   coletor number X10001.03
##          <int> <chr>   <chr>  <chr>    <int>     <dbl>
##  1       10194 P. ara… abaxi… Perdiz…   2856     0.278
##  2       10194 P. ara… adaxi… Perdiz…   2856     0.254
##  3       10194 P. ara… abaxi… Perdiz…   2856     0.273
##  4       10194 P. ara… adaxi… Perdiz…   2856     0.258
##  5       10194 P. ara… abaxi… Perdiz…   2856     0.278
##  6       10194 P. ara… adaxi… Perdiz…   2856     0.254
##  7       10194 P. ara… abaxi… Perdiz…   2856     0.273
##  8       10194 P. ara… adaxi… Perdiz…   2856     0.258
##  9       10196 P. ara… abaxi… Perdiz…   2858     0.274
## 10       10196 P. ara… adaxi… Perdiz…   2858     0.278
## # … with 38 more rows, and 1,556 more variables:
## #   X3999.64 <dbl>, X4003.497 <dbl>, X4007.354 <dbl>,
## #   X4011.211 <dbl>, X4015.068 <dbl>,
## #   X4018.925 <dbl>, X4022.781 <dbl>,
## #   X4026.638 <dbl>, X4030.495 <dbl>,
## #   X4034.352 <dbl>, X4038.209 <dbl>,
## #   X4042.066 <dbl>, X4045.923 <dbl>, …
```

---

## Ordenar linhas - `arrange()`

```r
arrange(dados, desc(number))
```

```
## # A tibble: 48 × 1,562
##    especimenid SP1     face  coletor  number X10001.03
##          <int> <chr>   <chr> <chr>     <int>     <dbl>
##  1       12650 P. cal… abax… Perdiz,…   3239     0.349
##  2       12650 P. cal… adax… Perdiz,…   3239     0.342
##  3       12650 P. cal… abax… Perdiz,…   3239     0.342
##  4       12650 P. cal… adax… Perdiz,…   3239     0.355
##  5       12650 P. cal… abax… Perdiz,…   3239     0.349
##  6       12650 P. cal… adax… Perdiz,…   3239     0.342
##  7       12650 P. cal… abax… Perdiz,…   3239     0.342
##  8       12650 P. cal… adax… Perdiz,…   3239     0.355
##  9       12648 P. cal… abax… Perdiz,…   3237     0.402
## 10       12648 P. cal… adax… Perdiz,…   3237     0.389
## # … with 38 more rows, and 1,556 more variables:
## #   X3999.64 <dbl>, X4003.497 <dbl>, X4007.354 <dbl>,
## #   X4011.211 <dbl>, X4015.068 <dbl>,
## #   X4018.925 <dbl>, X4022.781 <dbl>,
## #   X4026.638 <dbl>, X4030.495 <dbl>,
## #   X4034.352 <dbl>, X4038.209 <dbl>,
## #   X4042.066 <dbl>, X4045.923 <dbl>, …
```

---

## Filtragem de linhas - `filter()`

```r
filter(dados, SP1 == "P. calanense")
```

```
## # A tibble: 24 × 1,562
##    especimenid SP1     face  coletor  number X10001.03
##          <int> <chr>   <chr> <chr>     <int>     <dbl>
##  1       12647 P. cal… abax… Perdiz,…   3236     0.322
##  2       12647 P. cal… adax… Perdiz,…   3236     0.329
##  3       12647 P. cal… abax… Perdiz,…   3236     0.340
##  4       12647 P. cal… adax… Perdiz,…   3236     0.320
##  5       12647 P. cal… abax… Perdiz,…   3236     0.322
##  6       12647 P. cal… adax… Perdiz,…   3236     0.329
##  7       12647 P. cal… abax… Perdiz,…   3236     0.340
##  8       12647 P. cal… adax… Perdiz,…   3236     0.320
##  9       12648 P. cal… abax… Perdiz,…   3237     0.402
## 10       12648 P. cal… adax… Perdiz,…   3237     0.389
## # … with 14 more rows, and 1,556 more variables:
## #   X3999.64 <dbl>, X4003.497 <dbl>, X4007.354 <dbl>,
## #   X4011.211 <dbl>, X4015.068 <dbl>,
## #   X4018.925 <dbl>, X4022.781 <dbl>,
## #   X4026.638 <dbl>, X4030.495 <dbl>,
## #   X4034.352 <dbl>, X4038.209 <dbl>,
## #   X4042.066 <dbl>, X4045.923 <dbl>, …
```
…
--

## .bg-green[Vírgula `,` em `filter()` equivale a `&`]

---

## Criar novas colunas - `mutate()`

```r
nova_coluna <- mutate(dados, calanense = ifelse(SP1 == "P. calanense", 1, 0))
select(nova_coluna, SP1, calanense)
```

```
## # A tibble: 48 × 2
##    SP1            calanense
##    <chr>              <dbl>
##  1 P. aracouchini         0
##  2 P. aracouchini         0
##  3 P. aracouchini         0
##  4 P. aracouchini         0
##  5 P. aracouchini         0
##  6 P. aracouchini         0
##  7 P. aracouchini         0
##  8 P. aracouchini         0
##  9 P. aracouchini         0
## 10 P. aracouchini         0
## # … with 38 more rows
```
…
---

#### *Espremendo* os dados `treino`

> `juice()`

--

```r
*juice(dados_receita_prep)
```

```
## # A tibble: 36 × 1,562
##    especimenid face  coletor number X10001.03 X3999.64
##          <int> <fct> <fct>    <int>     <dbl>    <dbl>
##  1       10194 abax… Perdiz…   2856     0.278    0.596
##  2       10194 adax… Perdiz…   2856     0.258    0.576
##  3       10194 adax… Perdiz…   2856     0.254    0.567
##  4       10194 abax… Perdiz…   2856     0.273    0.581
##  5       10196 abax… Perdiz…   2858     0.274    0.681
##  6       10196 abax… Perdiz…   2858     0.276    0.703
##  7       10196 adax… Perdiz…   2858     0.267    0.712
##  8       10196 abax… Perdiz…   2858     0.274    0.681
##  9       10196 adax… Perdiz…   2858     0.278    0.673
## 10       10196 abax… Perdiz…   2858     0.276    0.703
## # … with 26 more rows, and 1,556 more variables:
## #   X4003.497 <dbl>, X4007.354 <dbl>,
## #   X4011.211 <dbl>, X4015.068 <dbl>,
## #   X4018.925 <dbl>, X4022.781 <dbl>,
## #   X4026.638 <dbl>, X4030.495 <dbl>,
## #   X4034.352 <dbl>, X4038.209 <dbl>,
## #   X4042.066 <dbl>, X4045.923 <dbl>, …
```
…
---

### Explorando o resultado com `tidy()`

```r
pca_tabela <- tidy(dados_receita_pca_prep, 1)
pca_tabela
```

```
## # A tibble: 56,052 × 4
##    terms       value component id       
##    <chr>       <dbl> <chr>     <chr>    
##  1 X10001.03 -0.0202 PC1       pca_OTwyZ
##  2 X3999.64  -0.0440 PC1       pca_OTwyZ
##  3 X4003.497 -0.0440 PC1       pca_OTwyZ
##  4 X4007.354 -0.0440 PC1       pca_OTwyZ
##  5 X4011.211 -0.0440 PC1       pca_OTwyZ
##  6 X4015.068 -0.0439 PC1       pca_OTwyZ
##  7 X4018.925 -0.0439 PC1       pca_OTwyZ
##  8 X4022.781 -0.0438 PC1       pca_OTwyZ
##  9 X4026.638 -0.0436 PC1       pca_OTwyZ
## 10 X4030.495 -0.0435 PC1       pca_OTwyZ
## # … with 56,042 more rows
```
…
---

### Checando as etapas da PCA com dados normalizados

#### Dados normalizados

```r
tidy(dados_receita_normal_pca, 1)
```

```
## # A tibble: 3,114 × 4
##    terms     statistic value id             
##    <chr>     <chr>     <dbl> <chr>          
##  1 X10001.03 mean      0.317 normalize_0VXeM
##  2 X3999.64  mean      0.699 normalize_0VXeM
##  3 X4003.497 mean      0.699 normalize_0VXeM
##  4 X4007.354 mean      0.699 normalize_0VXeM
##  5 X4011.211 mean      0.699 normalize_0VXeM
##  6 X4015.068 mean      0.698 normalize_0VXeM
##  7 X4018.925 mean      0.697 normalize_0VXeM
##  8 X4022.781 mean      0.696 normalize_0VXeM
##  9 X4026.638 mean      0.694 normalize_0VXeM
## 10 X4030.495 mean      0.691 normalize_0VXeM
## # … with 3,104 more rows
```

---

#### Checando médias das variáveis

```r
tidy(dados_receita_normal_pca, 1) %>%
  filter(statistic == "mean")
```

```
## # A tibble: 1,557 × 4
##    terms     statistic value id             
##    <chr>     <chr>     <dbl> <chr>          
##  1 X10001.03 mean      0.317 normalize_0VXeM
##  2 X3999.64  mean      0.699 normalize_0VXeM
##  3 X4003.497 mean      0.699 normalize_0VXeM
##  4 X4007.354 mean      0.699 normalize_0VXeM
##  5 X4011.211 mean      0.699 normalize_0VXeM
##  6 X4015.068 mean      0.698 normalize_0VXeM
##  7 X4018.925 mean      0.697 normalize_0VXeM
##  8 X4022.781 mean      0.696 normalize_0VXeM
##  9 X4026.638 mean      0.694 normalize_0VXeM
## 10 X4030.495 mean      0.691 normalize_0VXeM
## # … with 1,547 more rows
```

---

#### Checando desvio padrão das variáveis

```r
tidy(dados_receita_normal_pca, 1) %>%
  filter(statistic == "sd")
```

```
## # A tibble: 1,557 × 4
##    terms     statistic  value id             
##    <chr>     <chr>      <dbl> <chr>          
##  1 X10001.03 sd        0.0512 normalize_0VXeM
##  2 X3999.64  sd        0.0516 normalize_0VXeM
##  3 X4003.497 sd        0.0517 normalize_0VXeM
##  4 X4007.354 sd        0.0517 normalize_0VXeM
##  5 X4011.211 sd        0.0518 normalize_0VXeM
##  6 X4015.068 sd        0.0518 normalize_0VXeM
##  7 X4018.925 sd        0.0518 normalize_0VXeM
##  8 X4022.781 sd        0.0517 normalize_0VXeM
##  9 X4026.638 sd        0.0517 normalize_0VXeM
## 10 X4030.495 sd        0.0515 normalize_0VXeM
## # … with 1,547 more rows
```

---

#### Checando a PCA normalizada

```r
pca_tabela_normalizada <- tidy(dados_receita_normal_pca, 2)
pca_tabela_normalizada
```

```
## # A tibble: 56,052 × 4
##    terms      value component id       
##    <chr>      <dbl> <chr>     <chr>    
##  1 X10001.03 0.0257 PC1       pca_lZPx9
##  2 X3999.64  0.0214 PC1       pca_lZPx9
##  3 X4003.497 0.0214 PC1       pca_lZPx9
##  4 X4007.354 0.0215 PC1       pca_lZPx9
##  5 X4011.211 0.0215 PC1       pca_lZPx9
##  6 X4015.068 0.0216 PC1       pca_lZPx9
##  7 X4018.925 0.0216 PC1       pca_lZPx9
##  8 X4022.781 0.0216 PC1       pca_lZPx9
##  9 X4026.638 0.0217 PC1       pca_lZPx9
## 10 X4030.495 0.0217 PC1       pca_lZPx9
## # … with 56,042 more rows
```
…
